[
  {
    "model": "auth.user",
    "pk": 1,
    "fields": {
      "password": "pbkdf2_sha256$150000$fZH0prUcq1ox$dW17dtIFuakZu9dhYm+pP2CqlS4MyeUrkYUx1mV4siA=",
      "last_login": null,
      "is_superuser": true,
      "username": "admin",
      "first_name": "",
      "last_name": "",
      "email": "admin@rightcom.ci",
      "is_staff": true,
      "is_active": true,
      "date_joined": "2019-10-12T18:17:39.653Z",
      "groups": [],
      "user_permissions": []
    }
  }
]